Covid-19
…
 ## Prepping the Data

I used the following packages and removed sci notation (it was driving me crazy!).

library(tidyverse)
library(tidytext)
library(topicmodels)

options(scipen=999)

This is a tibble (a quick look) at the dataset. All files can be found in my covid repository.

tweets

## # A tibble: 234 x 37
##    created_at Date  Week  hashtags media urls  favorite_count      id
##    <chr>      <chr> <chr> <chr>    <chr> <chr>          <dbl>   <dbl>
##  1 Sat Feb 0… 1-Feb week… coronav… http… http…            723 1.22e18
##  2 Sat Feb 0… 1-Feb week… CDC 201… http… http…            424 1.22e18
##  3 Sun Feb 0… 2-Feb week… HCPs co… http… http…            284 1.22e18
##  4 Sun Feb 0… 2-Feb week… 2019nCo… http… http…            490 1.22e18
##  5 Sun Feb 0… 2-Feb week… 2019nCo… http… http…            690 1.22e18
##  6 Mon Feb 0… 3-Feb week… flu      http… http…            205 1.22e18
##  7 Mon Feb 0… 3-Feb week… fluvacc… http… http…            439 1.22e18
##  8 Tue Feb 0… 4-Feb week… <NA>     <NA>  <NA>               2 1.22e18
##  9 Tue Feb 0… 4-Feb week… <NA>     <NA>  <NA>               1 1.22e18
## 10 Tue Feb 0… 4-Feb week… Coronav… <NA>  <NA>               0 1.22e18
## # … with 224 more rows, and 29 more variables:
## #   in_reply_to_screen_name <chr>, in_reply_to_status_id <dbl>,
## #   in_reply_to_user_id <dbl>, lang <chr>, place <lgl>,
## #   possibly_sensitive <lgl>, retweet_count <dbl>, reweet_id <dbl>,
## #   retweet_screen_name <chr>, source <chr>, text <chr>, tweet_url <chr>,
## #   user_created_at <chr>, user_screen_name <chr>,
## #   user_default_profile_image <lgl>, user_description <chr>,
## #   user_favourites_count <dbl>, user_followers_count <dbl>,
## #   user_friends_count <dbl>, user_listed_count <dbl>,
…
