Pop Music Over the Decades
…
Initial Look

 I used the following packages:

library("tidyverse")
library("tidytext")
library("wordcloud")
library("reshape2")

This is a tibble (a quick look) at the dataset that has the lyrics from the Billboard Top 100 Songs from 1965 - 2015.

lyrics

## # A tibble: 5,100 x 6
##     Rank Song            Artist        Year Lyrics                   Source
##    <dbl> <chr>           <chr>        <dbl> <chr>                     <dbl>
##  1     1 wooly bully     sam the sha…  1965 sam the sham miscellane…      3
##  2     2 i cant help my… four tops     1965 sugar pie honey bunch y…      1
##  3     3 i cant get no … the rolling…  1965 <NA>                          1
##  4     4 you were on my… we five       1965 when i woke up this mor…      1
##  5     5 youve lost tha… the righteo…  1965 you never close your ey…      1
##  6     6 downtown        petula clark  1965 when youre alone and li…      1
##  7     7 help            the beatles   1965 help i need somebody he…      3
##  8     8 cant you hear … hermans her…  1965 carterlewis every time …      5
##  9     9 crying in the … elvis presl…  1965 you saw me crying in th…      1
## 10    10 my girl         the temptat…  1965 ive got sunshine on a c…      3
## # … with 5,090 more rows
…
Sentiment Analysis

Okay, now let’s see what sort of emotion is present in these lyrics. Using the Bing sentiment word dictionary, I matched each word with it’s sentiment score. A higher score means more positive sentiment and a lower score means more negative sentiment.

get_sentiments("bing")

## # A tibble: 6,786 x 2
##    word        sentiment
##    <chr>       <chr>    
##  1 2-faces     negative 
##  2 abnormal    negative 
##  3 abolish     negative 
##  4 abominable  negative 
##  5 abominably  negative 
##  6 abominate   negative 
##  7 abomination negative 
##  8 abort       negative 
##  9 aborted     negative 
## 10 aborts      negative 
## # … with 6,776 more rows
…
